
{
    "interval" : {
           "type" : "interval",
           "start" : "25.05.2018",
           "end" : "11.06.2018"
		   },
	"object":{
			"fiders":["48","52"],
			"groups":["13"]
	},	
	"quants" : ["1", "3"],
	"integr_int": "10"
}